…
``` r
source(here::here("file_paths.R"))

theme_set(theme_minimal())
```

Poking around:

``` r
ds_alcohol %>% arrange(desc(ttl_L_pure_alcohol))
```

    ## # A tibble: 193 x 13
    ##    country  beer spirit  wine ttl_L_pure_alco… country_abbr latitude
    ##    <chr>   <dbl>  <dbl> <dbl>            <dbl> <chr>           <dbl>
    ##  1 Belarus   142    373    42             14.4 BY               53.7
    ##  2 Lithua…   343    244    56             12.9 LT               55.2
    ##  3 Andorra   245    138   312             12.4 AD               42.5
    ##  4 Grenada   199    438    28             11.9 GD               12.3
    ##  5 Czech …   361    170   134             11.8 CZ               49.8
    ##  6 France    127    151   370             11.8 FR               46.2
    ##  7 Russia…   247    326    73             11.5 <NA>             NA  
    ##  8 Ireland   313    118   165             11.4 IE               53.4
    ##  9 Luxemb…   236    133   271             11.4 LU               49.8
    ## 10 Slovak…   196    293   116             11.4 SK               48.7
    ## # … with 183 more rows, and 6 more variables: longitude <dbl>,
    ## #   country_code <chr>, indicator_name <chr>, indicator_code <chr>,
    ## #   valid_year <chr>, ppp <dbl>
…
